<svg xmlns="http://www.w3.org/2000/svg" xml:space="preserve" width="12.3509mm" height="3.4274mm" version="1.1" style="shape-rendering:geometricPrecision; text-rendering:geometricPrecision; image-rendering:optimizeQuality; fill-rule:evenodd; clip-rule:evenodd; stroke: none;" viewBox="0 0 11.36 3.15" xmlns:xlink="http://www.w3.org/1999/xlink">
 <g>
  <rect x="-0" y="1.24" width="11.36" height="0.65"/>
  <polygon points="9.41,3.15 10.07,3.15 10.07,2.84 10.4,2.84 10.4,2.53 10.73,2.53 10.73,2.22 11.05,2.22 11.05,0.94 10.73,0.94 10.73,0.62 10.4,0.62 10.4,0.31 10.07,0.31 10.07,0 9.41,0 9.41,0.31 9.41,0.62 9.73,0.62 9.73,0.94 10.08,0.94 10.08,2.22 9.73,2.22 9.73,2.53 9.41,2.53 9.41,2.84 "/>
 </g>
</svg>
