<?xml version="1.0" encoding="utf-8"?>
<!-- Generator: Adobe Illustrator 22.1.0, SVG Export Plug-In . SVG Version: 6.00 Build 0)  -->
<svg version="1.1" id="Слой_1" xmlns="http://www.w3.org/2000/svg" xmlns:xlink="http://www.w3.org/1999/xlink" x="0px" y="0px"
	 viewBox="0 0 17.1 21.3" style="enable-background:new 0 0 17.1 21.3;" xml:space="preserve">
<style type="text/css">
	.st0{stroke-width:2;stroke-miterlimit:10;}
	.st1{fill:none;}
</style>
<polygon class="st0" points="16,20.3 1,20.3 1,5.3 16.1,5.4 "/>
<path  fill="none" class="st0 st1" d="M5.1,5.4c0-5.7,6.7-5.9,6.7,0"/>
</svg>
