<svg xmlns="http://www.w3.org/2000/svg" xml:space="preserve" width="7.0632mm" height="7.3654mm" version="1.1" style="shape-rendering:geometricPrecision; text-rendering:geometricPrecision; image-rendering:optimizeQuality; fill-rule:evenodd; clip-rule:evenodd; stroke: none;" viewBox="0 0 1.72 1.8" xmlns:xlink="http://www.w3.org/1999/xlink">
 <g>
  <path d="M0.97 0.95l-0 -0.95 -0.17 -0 0 0.95 -0.22 -0.22 -0.12 0.12 0.31 0.31 0.12 0.12 0.12 -0.12 0.31 -0.31 -0.12 -0.12 -0.22 0.22zm0.76 0.85l0 -0.16 0 -0.01 -0 -0.24 -0.17 -0 0 0.24 -1.38 0 -0 -0.24 -0.17 -0 0 0.24 0 0.17 0 0 0.17 0 1.38 -0 0 0 0.17 0z"/>
 </g>
</svg>
