<svg xmlns="http://www.w3.org/2000/svg" xml:space="preserve" width="5.8152mm" height="7.588mm" version="1.1" style="shape-rendering:geometricPrecision; text-rendering:geometricPrecision; image-rendering:optimizeQuality; fill-rule:evenodd; clip-rule:evenodd; fill:none; stroke-width:0.46; stroke-miterlimit:22.9256" viewBox="0 0 3.56 4.65" xmlns:xlink="http://www.w3.org/1999/xlink">
 <g>
  <rect x="0.23" y="0.23" width="3.1" height="4.19"/>
  <line x1="1.36" y1="3.41" x2="2.21" y2= "3.41" />
 </g>
</svg>
