<svg xmlns="http://www.w3.org/2000/svg" xml:space="preserve" width="6.8626mm" height="6.8627mm" version="1.1" style="shape-rendering:geometricPrecision; text-rendering:geometricPrecision; image-rendering:optimizeQuality; fill-rule:evenodd; clip-rule:evenodd; stroke: none;" viewBox="0 0 3.6 3.6" xmlns:xlink="http://www.w3.org/1999/xlink">
 <g>
  <polygon points="2.32,2.6 3.32,3.6 3.6,3.32 2.6,2.32 "/>
  <path d="M2.64 0.45c0.3,0.3 0.45,0.7 0.45,1.09l-0 0c0,0.4 -0.15,0.79 -0.45,1.09l0 0c-0.3,0.3 -0.7,0.45 -1.09,0.45 -0.4,0 -0.79,-0.15 -1.09,-0.45 -0.3,-0.3 -0.45,-0.7 -0.45,-1.09 0,-0.4 0.15,-0.79 0.45,-1.09 0.3,-0.3 0.7,-0.45 1.09,-0.45l0 0c0.4,0 0.79,0.15 1.09,0.45zm0.06 1.09l-0 0c0,-0.29 -0.11,-0.59 -0.34,-0.81 -0.23,-0.23 -0.52,-0.34 -0.81,-0.34l0 0c-0.29,0 -0.59,0.11 -0.81,0.34 -0.22,0.22 -0.34,0.52 -0.34,0.81 0,0.29 0.11,0.59 0.34,0.81 0.22,0.22 0.52,0.34 0.81,0.34 0.29,0 0.59,-0.11 0.81,-0.34 0.23,-0.22 0.34,-0.52 0.34,-0.81z"/>
 </g>
</svg>
